/*
 ISC License

 Copyright (c) 2016-2018, Autonomous Vehicle Systems Lab, University of Colorado at Boulder

 Permission to use, copy, modify, and/or distribute this software for any
 purpose with or without fee is hereby granted, provided that the above
 copyright notice and this permission notice appear in all copies.

 THE SOFTWARE IS PROVIDED "AS IS" AND THE AUTHOR DISCLAIMS ALL WARRANTIES
 WITH REGARD TO THIS SOFTWARE INCLUDING ALL IMPLIED WARRANTIES OF
 MERCHANTABILITY AND FITNESS. IN NO EVENT SHALL THE AUTHOR BE LIABLE FOR
 ANY SPECIAL, DIRECT, INDIRECT, OR CONSEQUENTIAL DAMAGES OR ANY DAMAGES
 WHATSOEVER RESULTING FROM LOSS OF USE, DATA OR PROFITS, WHETHER IN AN
 ACTION OF CONTRACT, NEGLIGENCE OR OTHER TORTIOUS ACTION, ARISING OUT OF
 OR IN CONNECTION WITH THE USE OR PERFORMANCE OF THIS SOFTWARE.

 */
%module inertial3DSpin
%{
   #include "inertial3DSpin.h"
%}

%include "swig_conly_data.i"
%constant void Update_inertial3DSpin(void*, uint64_t, uint64_t);
%ignore Update_inertial3DSpin;
%constant void SelfInit_inertial3DSpin(void*, uint64_t);
%ignore SelfInit_inertial3DSpin;
%constant void CrossInit_inertial3DSpin(void*, uint64_t);
%ignore CrossInit_inertial3DSpin;
%constant void Reset_inertial3DSpin(void*, uint64_t, uint64_t);
%ignore Reset_inertial3DSpin;
GEN_SIZEOF(inertial3DSpinConfig);
GEN_SIZEOF(AttRefFswMsg);
%include "inertial3DSpin.h"

// sample Module supportfile to be included in this sub-module
%include "../../fswMessages/attRefFswMsg.h"
%pythoncode %{
import sys
protectAllClasses(sys.modules[__name__])
%}
